{
    "crab-dev": {
        "delegate-dn": [
            "/DC=ch/DC=cern/OU=computers/CN=vocms0105.cern.ch|/DC=ch/DC=cern/OU=computers/CN=crab-(preprod|prod|dev)-tw(02|01).cern.ch|/DC=ch/DC=cern/OU=computers/CN=(ddi|ddidk|mytw).cern.ch"
        ],
        "backend-urls" : {
            "cacheSSL" : "https://cmsweb-testbed.cern.ch/crabcache",
            "baseURL" : "https://cmsweb-testbed.cern.ch/crabcache",
            "htcondorSchedds" : {
                "crab3-5@vocms059.cern.ch" : {
                    "proxiedurl": "https://cmsweb.cern.ch/scheddmon/059",
                    "weightfactor": 0
                },
                "crab3@vocms068.cern.ch" : {
                    "proxiedurl": "https://cmsweb.cern.ch/scheddmon/068",
                    "weightfactor": 1 
                },
                "crab3@vocms069.cern.ch" : {
                    "proxiedurl": "https://cmsweb.cern.ch/scheddmon/069",
                    "weightfactor": 1 
                },
                "crab3@vocms0107.cern.ch" : {
                    "proxiedurl": "https://cmsweb.cern.ch/scheddmon/0107",
                    "weightfactor": 1
                },
                "crab3@vocms0119.cern.ch" : {
                    "proxiedurl": "https://cmsweb.cern.ch/scheddmon/0119",
                    "weightfactor": 1
                },
                "crab3@vocms0120.cern.ch" : {
                    "proxiedurl": "https://cmsweb.cern.ch/scheddmon/0120",
                    "weightfactor": 1
                },
                "crab3@vocms0121.cern.ch" : {
                    "proxiedurl": "https://cmsweb.cern.ch/scheddmon/0121",
                    "weightfactor": 1
                },
                "crab3@vocms0122.cern.ch" : {
                    "proxiedurl": "https://cmsweb.cern.ch/scheddmon/0122",
                    "weightfactor": 1
                },
                "crab3@vocms0137.cern.ch" : {
                    "proxiedurl": "https://cmsweb.cern.ch/scheddmon/0137",
                    "weightfactor": 1
                },
                "crab3@vocms0144.cern.ch" : {
                    "proxiedurl": "https://cmsweb.cern.ch/scheddmon/0144",
                    "weightfactor": 1
                },
                "crab3@vocms0155.cern.ch" : {
                    "proxiedurl": "https://cmsweb.cern.ch/scheddmon/0155",
                    "weightfactor": 1
                },
                "crab3@vocms0194.cern.ch" : {
                    "proxiedurl": "https://cmsweb.cern.ch/scheddmon/0194",
                    "weightfactor": 1
                },
                "crab3@vocms0195.cern.ch" : {
                    "proxiedurl": "https://cmsweb.cern.ch/scheddmon/0195",
                    "weightfactor": 1
                },
                "crab3@vocms0196.cern.ch" : {
                    "proxiedurl": "https://cmsweb.cern.ch/scheddmon/0196",
                    "weightfactor": 1
                },
                "crab3@vocms0197.cern.ch" : {
                    "proxiedurl": "https://cmsweb.cern.ch/scheddmon/0197",
                    "weightfactor": 1
                },
                "crab3@vocms0198.cern.ch" : {
                    "proxiedurl": "https://cmsweb.cern.ch/scheddmon/0198",
                    "weightfactor": 1
                },
                "crab3@vocms0199.cern.ch" : {
                    "proxiedurl": "https://cmsweb.cern.ch/scheddmon/0199",
                    "weightfactor": 1
                }
            },
            "htcondorPool" : "cmsgwms-collector-global.cern.ch:9620,cmssrv623.fnal.gov:9620",
            "asoConfig" : [
                {"couchURL" : "https://vocms035.cern.ch/crabserver/dev" , "couchDBName" : "filetransfers"}
            ]
        },
        "compatible-version" : ["3.3.1911.rc1","3.3.1911","3.3.1911.patch1","3.3.2001"],
        "banned-out-destinations" : []
    },
    "cmsweb-dev": {
        "delegate-dn": [
            "/DC=ch/DC=cern/OU=computers/CN=vocms0105.cern.ch|/DC=ch/DC=cern/OU=computers/CN=crab-(preprod|prod|dev)-tw(02|01).cern.ch|/DC=ch/DC=cern/OU=computers/CN=(ddi|ddidk|mytw).cern.ch"
        ],
        "backend-urls" : {
            "cacheSSL" : "https://cmsweb-testbed.cern.ch/crabcache",
            "baseURL" : "https://cmsweb-testbed.cern.ch/crabcache",
            "htcondorSchedds" : {
                "crab3-5@vocms059.cern.ch" : {
                    "proxiedurl": "https://cmsweb.cern.ch/scheddmon/059",
                    "weightfactor": 0
                },
                "crab3@vocms068.cern.ch" : {
                    "proxiedurl": "https://cmsweb.cern.ch/scheddmon/068",
                    "weightfactor": 1
                },
                "crab3@vocms069.cern.ch" : {
                    "proxiedurl": "https://cmsweb.cern.ch/scheddmon/069",
                    "weightfactor": 1 
                },
                "crab3@vocms0106.cern.ch" : {
                    "proxiedurl": "https://cmsweb.cern.ch/scheddmon/0106",
                    "weightfactor": 1
                },
                "crab3@vocms0107.cern.ch" : {
                    "proxiedurl": "https://cmsweb.cern.ch/scheddmon/0107",
                    "weightfactor": 1
                },
                "crab3@vocms0119.cern.ch" : {
                    "proxiedurl": "https://cmsweb.cern.ch/scheddmon/0119",
                    "weightfactor": 1
                },
                "crab3@vocms0120.cern.ch" : {
                    "proxiedurl": "https://cmsweb.cern.ch/scheddmon/0120",
                    "weightfactor": 1
                },
                "crab3@vocms0121.cern.ch" : {
                    "proxiedurl": "https://cmsweb.cern.ch/scheddmon/0121",
                    "weightfactor": 1
                },
                "crab3@vocms0122.cern.ch" : {
                    "proxiedurl": "https://cmsweb.cern.ch/scheddmon/0122",
                    "weightfactor": 1
                },
                "crab3@vocms0137.cern.ch" : {
                    "proxiedurl": "https://cmsweb.cern.ch/scheddmon/0137",
                    "weightfactor": 1
                },
                "crab3@vocms0144.cern.ch" : {
                    "proxiedurl": "https://cmsweb.cern.ch/scheddmon/0144",
                    "weightfactor": 1
                },
                "crab3@vocms0155.cern.ch" : {
                    "proxiedurl": "https://cmsweb.cern.ch/scheddmon/0155",
                    "weightfactor": 1
                },
                "crab3@vocms0194.cern.ch" : {
                    "proxiedurl": "https://cmsweb.cern.ch/scheddmon/0194",
                    "weightfactor": 1
                },
                "crab3@vocms0195.cern.ch" : {
                    "proxiedurl": "https://cmsweb.cern.ch/scheddmon/0195",
                    "weightfactor": 1
                },
                "crab3@vocms0196.cern.ch" : {
                    "proxiedurl": "https://cmsweb.cern.ch/scheddmon/0196",
                    "weightfactor": 1
                },
                "crab3@vocms0197.cern.ch" : {
                    "proxiedurl": "https://cmsweb.cern.ch/scheddmon/0197",
                    "weightfactor": 1
                },
                "crab3@vocms0198.cern.ch" : {
                    "proxiedurl": "https://cmsweb.cern.ch/scheddmon/0198",
                    "weightfactor": 1
                },
                "crab3@vocms0199.cern.ch" : {
                    "proxiedurl": "https://cmsweb.cern.ch/scheddmon/0199",
                    "weightfactor": 1
                }
            },
            "htcondorPool" : "cmsgwms-collector-global.cern.ch:9620,cmssrv623.fnal.gov:9620",
            "asoConfig" : [
                {"couchURL" : "https://cmsweb-testbed.cern.ch/couchdb", "couchDBName" : "asodb3"}
            ]
        },
        "compatible-version" : ["3.3.1911.rc1","3.3.1911","3.3.1911.patch1","3.3.2001"],
        "banned-out-destinations" : []

    },
    "cmsweb-test": {
        "delegate-dn": [
            "/DC=ch/DC=cern/OU=computers/CN=vocms0105.cern.ch|/DC=ch/DC=cern/OU=computers/CN=crab-(preprod|prod|dev)-tw(02|01).cern.ch|/DC=ch/DC=cern/OU=computers/CN=(ddi|ddidk|mytw).cern.ch"
        ],
        "backend-urls" : {
            "cacheSSL" : "https://cmsweb-test2.cern.ch:443/crabcache",
            "baseURL" : "https://cmsweb-test2.cern.ch/crabcache",
            "htcondorSchedds" : {
                "crab3-5@vocms059.cern.ch" : {
                    "proxiedurl": "https://cmsweb.cern.ch/scheddmon/059",
                    "weightfactor": 0
                },
                "crab3@vocms068.cern.ch" : {
                    "proxiedurl": "https://cmsweb.cern.ch/scheddmon/068",
                    "weightfactor": 1
                },
                "crab3@vocms069.cern.ch" : {
                    "proxiedurl": "https://cmsweb.cern.ch/scheddmon/069",
                    "weightfactor": 1
                },
                "crab3@vocms0106.cern.ch" : {
                    "proxiedurl": "https://cmsweb.cern.ch/scheddmon/0106",
                    "weightfactor": 1
                },
                "crab3@vocms0107.cern.ch" : {
                    "proxiedurl": "https://cmsweb.cern.ch/scheddmon/0107",
                    "weightfactor": 1
                },
                "crab3@vocms0119.cern.ch" : {
                    "proxiedurl": "https://cmsweb.cern.ch/scheddmon/0119",
                    "weightfactor": 1
                },
                "crab3@vocms0120.cern.ch" : {
                    "proxiedurl": "https://cmsweb.cern.ch/scheddmon/0120",
                    "weightfactor": 1
                },
                "crab3@vocms0121.cern.ch" : {
                    "proxiedurl": "https://cmsweb.cern.ch/scheddmon/0121",
                    "weightfactor": 1
                },
                "crab3@vocms0122.cern.ch" : {
                    "proxiedurl": "https://cmsweb.cern.ch/scheddmon/0122",
                    "weightfactor": 1
                },
                "crab3@vocms0137.cern.ch" : {
                    "proxiedurl": "https://cmsweb.cern.ch/scheddmon/0137",
                    "weightfactor": 1
                },
                "crab3@vocms0144.cern.ch" : {
                    "proxiedurl": "https://cmsweb.cern.ch/scheddmon/0144",
                    "weightfactor": 1
                },
                "crab3@vocms0155.cern.ch" : {
                    "proxiedurl": "https://cmsweb.cern.ch/scheddmon/0155",
                    "weightfactor": 1
                },
                "crab3@vocms0194.cern.ch" : {
                    "proxiedurl": "https://cmsweb.cern.ch/scheddmon/0194",
                    "weightfactor": 1
                },
                "crab3@vocms0195.cern.ch" : {
                    "proxiedurl": "https://cmsweb.cern.ch/scheddmon/0195",
                    "weightfactor": 1
                },
                "crab3@vocms0196.cern.ch" : {
                    "proxiedurl": "https://cmsweb.cern.ch/scheddmon/0196",
                    "weightfactor": 1
                },
                "crab3@vocms0197.cern.ch" : {
                    "proxiedurl": "https://cmsweb.cern.ch/scheddmon/0197",
                    "weightfactor": 1
                },
                "crab3@vocms0198.cern.ch" : {
                    "proxiedurl": "https://cmsweb.cern.ch/scheddmon/0198",
                    "weightfactor": 1
                },
                "crab3@vocms0199.cern.ch" : {
                    "proxiedurl": "https://cmsweb.cern.ch/scheddmon/0199",
                    "weightfactor": 1
                }
            },
            "htcondorPool" : "cmsgwms-collector-global.cern.ch:9620,cmssrv623.fnal.gov:9620",
            "asoConfig" : [
                {"couchURL" : "https://cmsweb-test.cern.ch/crabserver/preprod" , "couchDBName" : "filetransfers"}
            ]
        },
        "compatible-version" : ["3.3.1911.rc1","3.3.1911","3.3.1911.patch1","3.3.2001"],
        "banned-out-destinations" : []
    },
    "cmsweb-preprod": {
        "delegate-dn": [
            "/DC=ch/DC=cern/OU=computers/CN=vocms0105.cern.ch|/DC=ch/DC=cern/OU=computers/CN=crab-(preprod|prod|dev)-tw(02|01).cern.ch|/DC=ch/DC=cern/OU=computers/CN=(ddi|ddidk|mytw).cern.ch"
        ],
        "backend-urls" : {
            "cacheSSL" : "https://cmsweb-testbed.cern.ch/crabcache",
            "baseURL" : "https://cmsweb-testbed.cern.ch/crabcache",
            "htcondorSchedds" : {
                "crab3-5@vocms059.cern.ch" : {
                    "proxiedurl": "https://cmsweb.cern.ch/scheddmon/059",
                    "weightfactor": 0
                },
                "crab3@vocms068.cern.ch" : {
                    "proxiedurl": "https://cmsweb.cern.ch/scheddmon/068",
                    "weightfactor": 1
                },
                "crab3@vocms069.cern.ch" : {
                    "proxiedurl": "https://cmsweb.cern.ch/scheddmon/069",
                    "weightfactor": 1 
                },
                "crab3@vocms0106.cern.ch" : {
                    "proxiedurl": "https://cmsweb.cern.ch/scheddmon/0106",
                    "weightfactor": 1
                },
                "crab3@vocms0107.cern.ch" : {
                    "proxiedurl": "https://cmsweb.cern.ch/scheddmon/0107",
                    "weightfactor": 1
                },
                "crab3@vocms0119.cern.ch" : {
                    "proxiedurl": "https://cmsweb.cern.ch/scheddmon/0119",
                    "weightfactor": 1
                },
                "crab3@vocms0120.cern.ch" : {
                    "proxiedurl": "https://cmsweb.cern.ch/scheddmon/0120",
                    "weightfactor": 1
                },
                "crab3@vocms0121.cern.ch" : {
                    "proxiedurl": "https://cmsweb.cern.ch/scheddmon/0121",
                    "weightfactor": 1
                },
                "crab3@vocms0122.cern.ch" : {
                    "proxiedurl": "https://cmsweb.cern.ch/scheddmon/0122",
                    "weightfactor": 1
                },
                "crab3@vocms0137.cern.ch" : {
                    "proxiedurl": "https://cmsweb.cern.ch/scheddmon/0137",
                    "weightfactor": 1
                },
                "crab3@vocms0144.cern.ch" : {
                    "proxiedurl": "https://cmsweb.cern.ch/scheddmon/0144",
                    "weightfactor": 1
                },
                "crab3@vocms0155.cern.ch" : {
                    "proxiedurl": "https://cmsweb.cern.ch/scheddmon/0155",
                    "weightfactor": 1
                },
                "crab3@vocms0194.cern.ch" : {
                    "proxiedurl": "https://cmsweb.cern.ch/scheddmon/0194",
                    "weightfactor": 1
                },
                "crab3@vocms0195.cern.ch" : {
                    "proxiedurl": "https://cmsweb.cern.ch/scheddmon/0195",
                    "weightfactor": 1
                },
                "crab3@vocms0196.cern.ch" : {
                    "proxiedurl": "https://cmsweb.cern.ch/scheddmon/0196",
                    "weightfactor": 1
                },
                "crab3@vocms0197.cern.ch" : {
                    "proxiedurl": "https://cmsweb.cern.ch/scheddmon/0197",
                    "weightfactor": 1
                },
                "crab3@vocms0198.cern.ch" : {
                    "proxiedurl": "https://cmsweb.cern.ch/scheddmon/0198",
                    "weightfactor": 1
                },
                "crab3@vocms0199.cern.ch" : {
                    "proxiedurl": "https://cmsweb.cern.ch/scheddmon/0199",
                    "weightfactor": 1
                }
            },
            "htcondorPool" : "cmsgwms-collector-global.cern.ch:9620,cmssrv623.fnal.gov:9620",
            "asoConfig" : [
                {"couchURL" : "https://cmsweb-testbed.cern.ch/crabserver/preprod" , "couchDBName" : "filetransfers"}
            ]
        },
        "compatible-version" : ["3.3.1911.rc1","3.3.1911","3.3.1911.patch1","3.3.2001"],
        "banned-out-destinations" : []
    },
    "cmsweb-prod": {
        "delegate-dn": [
            "/DC=ch/DC=cern/OU=computers/CN=vocms0105.cern.ch|/DC=ch/DC=cern/OU=computers/CN=crab-(preprod|prod|dev)-tw(02|01).cern.ch|/DC=ch/DC=cern/OU=computers/CN=(ddi|ddidk|mytw).cern.ch"
        ],
        "backend-urls" : {
            "cacheSSL" : "https://cmsweb.cern.ch/crabcache",
            "baseURL" : "https://cmsweb.cern.ch/crabcache",
            "htcondorSchedds" : {
                "crab3-5@vocms059.cern.ch" : {
                    "proxiedurl": "https://cmsweb.cern.ch/scheddmon/059",
                    "weightfactor": 0
                },
                "crab3@vocms0106.cern.ch" : {
                    "proxiedurl": "https://cmsweb.cern.ch/scheddmon/0106",
                    "weightfactor": 1
                },
                "crab3@vocms0107.cern.ch" : {
                    "proxiedurl": "https://cmsweb.cern.ch/scheddmon/0107",
                    "weightfactor": 1
                },
                "crab3@vocms0119.cern.ch" : {
                    "proxiedurl": "https://cmsweb.cern.ch/scheddmon/0119",
                    "weightfactor": 1
                },
                "crab3@vocms0120.cern.ch" : {
                    "proxiedurl": "https://cmsweb.cern.ch/scheddmon/0120",
                    "weightfactor": 1
                },
                "crab3@vocms0121.cern.ch" : {
                    "proxiedurl": "https://cmsweb.cern.ch/scheddmon/0121",
                    "weightfactor": 1
                },
                "crab3@vocms0122.cern.ch" : {
                    "proxiedurl": "https://cmsweb.cern.ch/scheddmon/0122",
                    "weightfactor": 1
                },
                "crab3@vocms0137.cern.ch" : {
                    "proxiedurl": "https://cmsweb.cern.ch/scheddmon/0137",
                    "weightfactor": 1
                },
                "crab3@vocms0144.cern.ch" : {
                    "proxiedurl": "https://cmsweb.cern.ch/scheddmon/0144",
                    "weightfactor": 1
                },
                "crab3@vocms0155.cern.ch" : {
                    "proxiedurl": "https://cmsweb.cern.ch/scheddmon/0155",
                    "weightfactor": 1
                },
                "crab3@vocms0194.cern.ch" : {
                    "proxiedurl": "https://cmsweb.cern.ch/scheddmon/0194",
                    "weightfactor": 1
                },
                "crab3@vocms0195.cern.ch" : {
                    "proxiedurl": "https://cmsweb.cern.ch/scheddmon/0195",
                    "weightfactor": 1
                },
                "crab3@vocms0196.cern.ch" : {
                    "proxiedurl": "https://cmsweb.cern.ch/scheddmon/0196",
                    "weightfactor": 1
                },
                "crab3@vocms0197.cern.ch" : {
                    "proxiedurl": "https://cmsweb.cern.ch/scheddmon/0197",
                    "weightfactor": 1
                },
                "crab3@vocms0198.cern.ch" : {
                    "proxiedurl": "https://cmsweb.cern.ch/scheddmon/0198",
                    "weightfactor": 1
                },
                "crab3@vocms0199.cern.ch" : {
                    "proxiedurl": "https://cmsweb.cern.ch/scheddmon/0199",
                    "weightfactor": 1
                }
            },
            "htcondorPool" : "cmsgwms-collector-global.cern.ch:9620,cmssrv623.fnal.gov:9620",
            "asoConfig" : [
                {"couchURL" : "https://cmsweb.cern.ch/crabserver/prod" , "couchDBName" : "filetransfers"}
            ]
        },
        "compatible-version" : ["3.3.1911.rc1","3.3.1911","3.3.1911.patch1","3.3.2001"],
        "banned-out-destinations" : []
    }
}
