{
    "rest-dciangot": {
        "delegate-dn": [
            "/DC=ch/DC=cern/OU=computers/CN=vocms(030|0105|0109).cern.ch|/DC=ch/DC=cern/OU=computers/CN=crab-(preprod|prod|dev|priv)-(tw|rest)(01|02).cern.ch"
        ],
        "backend-urls" : {
            "cacheSSL" : "https://rest-dciangot.cern.ch/crabcache",
            "baseURL" : "https://rest-dciangot.cern.ch/crabcache",
            "htcondorSchedds" : {
                "crab3-5@vocms059.cern.ch" : {
                    "proxiedurl": "https://cmsweb-testbed.cern.ch/scheddmon/059",
                    "weightfactor": 0
                },
                "crab3@vocms068.cern.ch" : {
                    "proxiedurl": "https://cmsweb-testbed.cern.ch/scheddmon/068",
                    "weightfactor": 1 
                },
                "crab3@vocms069.cern.ch" : {
                    "proxiedurl": "https://cmsweb-testbed.cern.ch/scheddmon/069",
                    "weightfactor": 1 
                },
                "crab3@vocms0107.cern.ch" : {
                    "proxiedurl": "https://cmsweb-testbed.cern.ch/scheddmon/0107",
                    "weightfactor": 1
                },
                "crab3@vocms0119.cern.ch" : {
                    "proxiedurl": "https://cmsweb-testbed.cern.ch/scheddmon/0119",
                    "weightfactor": 1
                },
                "crab3@vocms0120.cern.ch" : {
                    "proxiedurl": "https://cmsweb-testbed.cern.ch/scheddmon/0120",
                    "weightfactor": 1
                },
                "crab3@vocms0121.cern.ch" : {
                    "proxiedurl": "https://cmsweb-testbed.cern.ch/scheddmon/0121",
                    "weightfactor": 1
                },
                "crab3@vocms0122.cern.ch" : {
                    "proxiedurl": "https://cmsweb-testbed.cern.ch/scheddmon/0122",
                    "weightfactor": 1
                },
                "crab3@vocms0137.cern.ch" : {
                    "proxiedurl": "https://cmsweb-testbed.cern.ch/scheddmon/0137",
                    "weightfactor": 1
                },
                "crab3@vocms0144.cern.ch" : {
                    "proxiedurl": "https://cmsweb-testbed.cern.ch/scheddmon/0144",
                    "weightfactor": 1
                },
                "crab3@vocms0155.cern.ch" : {
                    "proxiedurl": "https://cmsweb-testbed.cern.ch/scheddmon/0155",
                    "weightfactor": 1
                },
                "crab3@vocms0194.cern.ch" : {
                    "proxiedurl": "https://cmsweb-testbed.cern.ch/scheddmon/0194",
                    "weightfactor": 0
                },
                "crab3@vocms0195.cern.ch" : {
                    "proxiedurl": "https://cmsweb-testbed.cern.ch/scheddmon/0195",
                    "weightfactor": 1
                },
                "crab3@vocms0196.cern.ch" : {
                    "proxiedurl": "https://cmsweb-testbed.cern.ch/scheddmon/0196",
                    "weightfactor": 1
                },
                "crab3@vocms0197.cern.ch" : {
                    "proxiedurl": "https://cmsweb-testbed.cern.ch/scheddmon/0197",
                    "weightfactor": 1
                },
                "crab3@vocms0198.cern.ch" : {
                    "proxiedurl": "https://cmsweb-testbed.cern.ch/scheddmon/0198",
                    "weightfactor": 1
                },
                "crab3@vocms0199.cern.ch" : {
                    "proxiedurl": "https://cmsweb-testbed.cern.ch/scheddmon/0199",
                    "weightfactor": 0
                }
            },
            "htcondorPool" : "cmsgwms-collector-global.cern.ch:9620,cmssrv221.fnal.gov:9620",
            "asoConfig" : [
                {"couchURL" : "https://crab-dev-rest01.cern.ch/crabserver/dev" , "couchDBName" : "filetransfers"}
            ]
        },
        "compatible-version" : ["3.3.1704","3.3.1705","3.3.1706","3.3.1707","3.3.1711","3.3.1802.rc1","3.3.1803","3.3.1803.rc1","3.3.1804","3.3.1804.patch1","3.3.1805","3.3.1805.patch1","3.3.1809"],
        "banned-out-destinations" : []

    }

}
